<?xml version="1.0" encoding="utf-8"?>
<!-- Generator: Adobe Illustrator 19.0.0, SVG Export Plug-In . SVG Version: 6.00 Build 0)  -->
<svg version="1.1" id="Layer_1" xmlns="http://www.w3.org/2000/svg" xmlns:xlink="http://www.w3.org/1999/xlink" x="0px" y="0px"
	 viewBox="0 0 612 792" style="enable-background:new 0 0 612 792;" xml:space="preserve">
<path id="XMLID_374_" style="fill:#201E1D;" d="M465.9,201.4c7.2-3.5,12.8-6.9,19.9-6.5c5.6,0.3,9.5,3.3,10.1,8.3
	c0.5,4.3-2.7,7.5-8.2,8.8c-7.5,1.8-14.8,0.4-22.2-0.6c-1.8-0.2-3.5-0.9-5.5,0c3.1,6.1,6,12.3,11,17.1c2.6,2.5,5.1,3.1,7.1-0.7
	c0.5-1,1.2-2.5,2.5-1.6c1.4,0.9,0.5,2.4-0.1,3.5c-2.3,4-6.3,5-10,2.2c-3.8-2.8-6.4-6.7-8.7-10.7c-1.2-2.1-2.5-4.2-4.4-7.3
	c-0.5,10.6-1,20.1-1.3,29.6c-0.8,21.9-2.5,43.8-4.8,65.6c-1.7,16.8-3.2,33.7-5.4,50.5c-2.5,19.9-5.4,39.7-8.4,59.6
	c-3.7,24.5-8.6,48.9-13.8,73.2c-0.3,1.4-0.5,2,1,2.9c4.3,2.7,5.4,7.1,4.8,11.7c-0.6,5.2-3.4,9.1-8.7,10.4c-2.5,0.6-3.4,2-3.9,4.2
	c-8.5,36.9-22,72.3-30.4,109.2c-1.9,8.4-2.4,17.1-4,25.5c-2.5,13.5-1.3,27.1-3.1,40.5c-2.7,19.8-4.4,39.7-9.7,59
	c-4.3,15.7-12.4,22.6-29.7,23.6c-15.1,0.9-30.2,1.6-45.3-0.6c-11.9-1.7-19.5-8.1-23.8-19.1c-5.2-13.5-7.9-27.6-10.8-41.7
	c-3.7-17.8-6.8-36-3.8-53.9c3.3-19.8-4-37.1-8.8-55.1c-0.1-0.5-0.6-0.8-0.9-1.3c-8.5,6-17.8,7.4-26.6,2.1c-5.5-3.4-10.2-5.8-17-5.4
	c-5.7,0.3-11-3.3-14.9-7.9c-1.3-1.5-2.5-3.7,0.9-3.6c11.5,0.5,17.7-7.2,23.8-14.9c5.9-7.4,10.3-15.8,14.1-24.4
	c0.9-1.9,0.9-3.6,0.3-5.7c-3.7-11.7-6.7-23.5-8.5-35.7c-0.7-4.3-2.6-7.5-6.8-9.7c-5.3-2.8-9.1-11.3-7.9-17.1c0.7-3.2,1.6-6.7,6-6.7
	c2.3,0,1.7-1.4,1.4-2.7c-5.7-29.6-11.4-59.1-17-88.7c-4.7-24.7-8.8-49.5-12.7-74.4c-3.6-23.1-7-46.2-8.9-69.6
	c-0.1-0.9-0.3-1.6-1.5-2c-2.2,7.4-5.7,14.1-12.3,18.6c-2.9,2-6,3.4-9.8,1.9c-1.1-0.4-1.8-0.9-1.6-2.1c0.3-1.5,1.5-1.2,2.4-0.8
	c3.3,1.5,5.9-0.1,8.1-2.1c5.5-4.6,9.4-10.2,9.7-17.7c0.2-3.6-1.1-5.3-5.2-5.2c-6.4,0.2-13,0.9-19.3-1.2c-2.5-0.8-5-1.8-6.9-3.7
	c-2.9-2.8-2.3-5.8,1.6-7.3c5.4-2,10.5-0.2,15.5,1.3c1.5,0.4,3,1.2,4.9,1.3c-3.2-3.4-6.4-6.7-9.5-10.1c-1.2-1.3-2.2-2.9-3.2-4.5
	c-1.1-1.7-1.9-3.8-0.8-5.6c1.1-2,3.3-1.8,5.4-1.5c0.6,0.1,1.3,0,2.4,0c-6.6-13.8-10.9-28-13.5-42.8c-9.5-53.9,20.1-105.3,70.2-119.4
	c26-7.3,49.8-1.9,71.2,14.7c7.1,5.5,12.9,12.3,18.7,19.6c1-4.4,0-8.3,0.8-12.2c3.3-15.3,13.8-24.1,27.4-29.8
	c17.5-7.3,35.8-8,54.7-7.4c39.8,1.2,86.4,43.7,96.8,74.8c7.9,23.6,7.3,46.8,0.2,70.2C476.3,181,471.8,190.9,465.9,201.4z
	 M308.7,603.7c-1.7,1-3.3,2.1-5,3.1c-1,0.5-1,1.3-0.7,2c0.6,1.1,1.5,0.3,2-0.1c1.6-1.4,3.1-2.9,4.7-4.3c0.4-0.4,1.2-0.8,0.7-1.3
	C309.8,602.5,309.1,602.8,308.7,603.7z M306.1,512.7c0,0.5-0.1,1-0.1,1.5c-1.2,4.6-3.8,8.4-6.5,12.4c4.9-0.1,5.5-0.5,9.6-6.6
	c0.8-0.2,1-0.7,0.9-1.5c2.9-5.4,3.9-11.1,2.1-17.1c-0.4-1.1-0.9-2.2-1.3-3.3c-3.1-11.4-7.9-21.7-18.2-28.5c-3.6-2.4-7.7-3.7-12-6.4
	c6.6-0.1,4.5-3.9,2.7-5.6c-2.6-2.4-4.1-5.2-6-8c-2.1-2.9-8.5-2.2-8.9,1.2c-0.5,4.5-4.2,5.6-5.8,8.6c-0.5,1-1,2.1-1.3,3.2
	c-0.5,2-1.3,3-3.5,2c-1.7-0.8-2.9-0.2-3.5,1.5c-0.5,1.4,0.4,2.1,1.6,3c4.3,3.2,4.3,8.5,0.6,12c-2.7,2.6-6.3-0.3-8.4,1.4
	c-2.3,1.8-3.2,5.5-7,5.6c-0.3,0-0.7,0-1,0c-1.6-0.2-1.9,0.8-2,2.1c-0.4,7.3-0.7,14.6,1.7,21.7c1.2,3.6,3.1,4.2,5.2,1.2
	c7.1-9.9,18-15.6,26.5-23.9c0.4-0.4,1.6-0.1,2.4-0.1c1,3-2,5.8-0.8,8.8c3.3-1,6-2.4,7-5.7c0.5-0.8,1-1.8,1.6-2.5
	c1.8-2.2,0.9-6.4,3.6-7.2c2.8-0.9,5.1,2.3,7.8,3.3c7.6,2.6,11.4,8.6,12.9,16.2c0.6,2.9-0.3,6,1,8.8c-0.1,0.4-0.2,0.8-0.2,1.1
	C306.6,512.1,306.3,512.4,306.1,512.7z M361.8,485.3c-3.9,1.1-7.9,0.7-11.9,0.8c-5.7,0.1-10.6,1-12.9,2.5c9,0.8,18-0.5,27-1.8
	c5.6-0.2,11.1-2.3,16.8-2c0.3,1,0.5,2,0.8,3c-0.7,1.3-0.6,2.7-0.4,4.1c0.1,3.2-0.5,6.3-1.6,9.3c-1.5,3.1-3,6.3-4.9,10.3
	c3.6-1.5,5.6-3,6.2-6c3.3-6.1,3.6-12.8,4.7-19.5c0.7-4.2-0.9-4.6-4.2-3.1C374.8,482.9,368.4,484.9,361.8,485.3z M336.8,563.6
	c0.1-0.5,0.2-1,0.3-1.4c0.4-1.4,2-2.8,0.4-4.1c-1.4-1.1-3.4-1.7-5.2-0.9c-2.2,1-1.5,3.2-1.1,4.8c0.7,3.2,1.8,6.3,2.8,9.4
	c0.5,2.1,0.6,4.4,2.8,6.3C336.8,572.7,336.8,568.2,336.8,563.6z M341.7,536c-1,0.1-2,0.1-2.9,0.3c-5.8,1.6-6.5,3.3-3.9,8.7
	c1.5,3.2,3.1,6.3,5.1,10.3c0.9-2.2,1.5-3.7,2-5.1c2.7-2.9,3.9-6.5,4.8-10.1c0.5-1.7,1-4.3-0.7-5.5
	C344.8,533.6,343.2,535.6,341.7,536z M302,776.2c4.9,1,9.9,1,14.8,0c0.1-5.3,0-10.6,0.3-15.9c0.2-3.2-0.9-4.5-4.2-4.4
	c-4.8,0.3-9.6-0.4-14.2-1.7c-6.7-1.8-6.7-1.7-5,5.3c0.2,0.8,0.1,1.7,0.4,2.4C296.1,767.1,296.1,773.3,302,776.2z M464.2,197.2
	c5.8-10,10.1-19.7,13.1-30.1c8.2-28.8,6.7-56.5-9.3-82.6c-9.2-14.9-22-26.4-35.9-36.8c-17.3-12.9-36.7-19.1-58.1-19.8
	c-13.9-0.4-27.5,1.5-40.6,6.1c-20.2,7.1-34.6,21.2-29.5,45.4c0.3,1.4,0.8,3.2-0.9,4c-1.9,0.8-2.6-0.9-3.3-2.2
	c-3.9-7.1-9.2-13-15-18.5c-19.5-18.6-42.9-25.4-69.2-20.5c-14.8,2.7-27.9,9.8-39.4,19.7c-18.6,16.1-30,36.3-33.9,60.4
	c-2.8,17.3-1.5,34.6,3.3,51.5c3.3,11.6,6.8,23.4,14.2,33.3c2.7,3.6,5.3,7.2,7.2,11.3c1.6,3.5,3.8,6.6,6.3,9.5
	c13.2,15.2,28.7,27.7,45.6,38.6c19.4,12.5,40.3,22.3,59.5,35.2c13.1,8.7,25.2,18.2,30.6,33.9c0.3,0.9,0.5,2.1,1.7,2.3
	c1.6,0.2,1.7-1.4,2.2-2.3c5.2-9.3,12.8-16.2,21.9-21.8c12.2-7.4,25.5-13.2,36.7-22.2c13.3-10.8,26.6-21.6,39.7-32.7
	c14.7-12.5,28.3-26.1,40.1-41.4c1.4-1.9,2.7-3.9,1.9-6.4c-1.9-6.2-0.9-12.6-0.9-18.9c0-3.8,2-7,4-10.1c1.1-1.7,2.7-3,5.1-2.3
	c2.3,0.7,3.1,2.4,3.1,4.6C464.2,188.3,464.2,192.2,464.2,197.2z M452.6,221.1c-3.6,4.1-7.8,9.2-12.2,14
	c-12.2,13.2-25.7,25.1-39.6,36.5c-17.6,14.4-34.7,29.3-55.3,39.7c-15.8,8-29.9,18-34.6,36.7c-0.3,1-0.8,1.9-2,1.8
	c-1.5-0.2-1-1.5-1-2.4c-1-10.4-4.8-19.4-11.9-27.2c-11.2-12.3-25.4-20.1-39.5-28.1c-20-11.4-40.3-22.2-58.6-36.3
	c-8-6.2-15.2-13.2-22.8-21c0,1.5-0.1,2.1,0,2.7c1.9,16,3.6,32,5.7,47.9c3.6,26.3,7.8,52.4,12.4,78.5c6.2,35,13.1,69.9,19.8,104.9
	c1.1,5.9,2.1,11.5,7.2,16.1c5,4.5,6.8,11,2.7,17.6c-0.5,0.8-1.2,1.5-0.6,2.7c4.6,8.6,7,18.1,12.5,27.7c0.7-7.2,3.8-13,1.7-19.2
	c-2.8-8.6-3.3-17.2-1.4-26c0.5-2,1.3-3.1-1.7-4.3c-3.7-1.5-3.9-6.6-0.5-8.3c2.5-1.3,3.3-1.9,2.2-4.9c-1-2.5,0.5-6.8,3.3-5.5
	c4.2,2,5.4-0.3,7.7-2.3c1.4-1.3,3.2-1.4,5.1-0.6c2.6,1.1,5.3-0.1,6.6-2c2-2.9,4.8-5.4,6-9c1.5-4.3,5.3-5.9,9.3-6.4
	c4-0.4,6.6,2.2,8.6,5.6c2.5,4.1,6.8,7.2,6.8,12.7c0,0.6,1.5,1.1,2.3,1.6c12.5,7.7,19.9,19.2,23.8,33.1c1.8,6.3,2.5,12.9-0.1,19.1
	c-1.9,4.4-1.6,8.6-1,13.1c1.5,9.4,6.2,17.3,10.6,25.5c0.5,0.9,0.6,2.5,2.5,2c0.2-5.1,4.4-9.4,3.1-14.7c-1.1-4.7,1.2-6.9,5-8.2
	c4.3-1.5,8.7-3,13.2-4c1.8-0.4,2-1.2,2.1-2.6c0.1-1.1,0.4-2.4-1.5-2.5c-11.1-0.5-17.7-9.3-26.3-14.4c-5.1-3.1-6.3-10-2.8-14.4
	c2.1-2.7,1.1-5.3,1.5-8c0.8-4.9-3.7-3.6-5.9-4.9c-0.7-0.4-1.6-0.6-2.3-0.8c-3-0.9-3.4-2.6-1.9-5.2c2.5-4.1,5.9-7.3,10.1-9.3
	c2.6-1.3,3.1-2.7,3-5.2c-0.7-12.9-1.2-25.9-2.1-38.8c-0.3-4.9,1.4-6.1,6.1-6c15.7,0.1,31.3,1.1,46.9-0.3c4.5-0.4,5.6,0.8,5.9,4.7
	c0.6,8.6,1.2,17.2,2.2,25.8c0.8,7.5,0.5,15.9,10.8,17.7c0.5,0.1,0.9,0.5,1.3,0.7c5.2,3.6,5.5,8.4,0,11.3c-3.9,2-4.7,4.4-4.4,8.2
	c0.2,1.6-0.6,3.3-0.7,4.9c-0.1,1.2-0.5,2.3,1.1,3.4c4,2.5,4.4,6.2,3,10.5c-1.4,4.3-4.4,6.4-8.7,7.1c-1.5,0.3-3.3-0.6-4.6,1.1
	c-5.2,6.8-12.5,10-20.6,11.9c-1,0.2-2.5-0.3-2.5,1.6c0,1.5-0.1,2.9,1.7,3.7c1.5,0.6,2.9,1.6,4.3,2.5c6.6,4.1,14.1,7.6,11.6,17.7
	c-0.1,0.2,0.2,0.5,0.4,0.8c3.5,5.5,5.4,11.7,8,17.5c1.3,2.9,2.4,2.5,4.2,0.8c3.1-2.8,5.7-6.1,7.5-9.8c6-12.7,11.8-25.4,17.7-38.1
	c0.9-1.8,0.5-3.1-0.1-4.9c-2.1-6.4-2.6-13.6,2.5-18.2c4.6-4.2,5.6-8.9,6.7-14.2c5.7-27,10.6-54.2,14.5-81.6
	c2.3-15.6,4.3-31.2,6.2-46.9c2.2-18.5,4.1-36.9,5.7-55.5c1.3-15.1,2.8-30.1,3.5-45.2C453.1,243.5,452.6,231.9,452.6,221.1z
	 M349.9,421.8c-6.7,0-13.3,0-20,0c-2,0-4.2-0.2-4.1,2.9c0.2,5.1,0.4,10.3,0.6,15.4c0.4,9.6,1.5,19.2,0.6,28.8
	c-0.1,1.4,0,3.7-2.2,2.8c-3.4-1.4-4.9,1.1-6.8,2.7c-1.4,1.2-3.9,2.3-3.1,4.5c0.6,1.6,3,1.7,4.8,2.1c19.7,3.9,39.3,1.5,58.8-1.7
	c5.2-0.9,10.3-2.2,15-4.9c2.9-1.7,2.1-3.3,0.1-4.9c-0.9-0.7-2.1-1-3.1-1.5c-0.9-0.5-1.8-1.3-2.7-0.6c-1.1,0.7-0.2,1.8-0.1,2.7
	c0.2,1.4,1,3.3-1.1,3.8c-1.7,0.4-2.1-1.5-2.4-2.6c-1.9-6.5-3.6-13.1-4.3-19.9c-1-9.1-2-18.1-2.8-27.2c-0.2-2.4-1.1-3.4-3.4-2.9
	C365.8,422.8,357.8,421.5,349.9,421.8z M282,607.8c3.2-0.7,5.8-1,8.4-0.3c6.9,1.8,9.3,9.3,4.7,14.8c-2.5,3.1-5.7,5.3-9.6,5.6
	c-3,0.3-3.8,1.5-4,4.2c-0.9,8.1-1.7,16.2-1.8,24.3c0,2.7,1,3.8,3.4,4.5c7.8,2.4,15.8,3.1,23.9,4c2.4,0.3,3.2-0.4,3-2.9
	c-0.8-14.6-1.6-29-6.6-43c-5.3-14.7-12.5-29.3-7.3-45.8c0.8-2.4,0.3-4.8-2-6c-2.3-1.2-4.7-0.2-6.4,1.5c-2.7,2.7-5.3,3.3-8.2,0.3
	c-0.6-0.7-1.7-0.9-2.6-1.3c-3.3-1.5-6.9-1.5-9.2,1.1c-2.3,2.7,0.5,5.4,2.2,7.3C277.6,585.2,283.2,595.1,282,607.8z M321,691.4
	C321,691.4,321,691.4,321,691.4c-0.1,6.5,0,13-0.1,19.5c-0.1,2.8,0.5,4.2,3.8,4.2c7.8,0.1,15.6-0.3,23.3-1.2
	c8.6-1,10.1-2.9,10.8-11.7c0.2-2.1,0.5-4.3,0.7-6.4c0.7-8.5,0.9-17-1.9-25.1c-1.1-3.1-2.4-5.7-7.2-4.8c-8.6,1.7-17.4,2.7-26.2,2.2
	c-2.7-0.2-3.5,0.9-3.4,3.5C321.1,678.1,321,684.7,321,691.4z M276.6,539.1c5.9-0.2,11.8-0.7,16.6-4.8c1.4-1.2,3.7-2.2,2.1-4.6
	c-2.6-4,0.2-6.8,2.6-8.8c4-3.4,4.3-7.8,5-12.2c1-7-4.3-11.7-7-17.2c-2.3-4.6-8.9-3.8-11.5,0.6c-5.3,9-12.4,12.3-22.5,10.4
	c-0.5-0.1-1.2,0.2-1.7,0.6c-4.6,3.8-9.4,7.5-12.6,12.6c-2.7,4.2-1.3,7.4,3.6,9.3c1.4,0.6,4.1,0.6,3.2,3.8c-0.3,1.1,1.2,2.5,2.5,3.5
	C262.7,536.5,269.2,539.1,276.6,539.1z M375.1,556.6c-1.7,10.3-5.1,20-6.6,30.1c-0.7,4.7-0.6,7.5,4.6,9.1c4.4,1.4,6.8,5,6.8,10
	c0,4.1-2.6,7.6-5.8,7.7c-8.6,0.5-7.2,5.6-6.2,10.9c0.1,0.3,0,0.7,0.1,1c1.1,9.7,3.6,19.1,7.2,28.2c0.6,1.4,1.2,2.6,3.2,2.3
	c2.3-0.3,1.4-1.8,1.6-3c1.2-7.2,2-14.4,3.5-21.5c5.3-25.4,13.9-49.8,21-74.7c1.4-4.8,3.5-9.4,3.1-14.6c-2.5,4.7-4.5,9.5-6.8,14.2
	c-3,6.1-6.1,12.2-11.8,16.4c-4.5,3.3-5.4,3.1-7.6-1.8C379.2,566.3,377.2,561.4,375.1,556.6z M235.6,542c-0.6,4.5-4.9,7.8-3.1,13
	c5.3,15.2,10.2,30.6,15.5,45.8c4,11.5,18.1,13.9,26.2,4.6c0.8-0.9,1.5-2.4,2.3-2.4c3.1-0.1,2.3-1.8,1.9-3.6
	c-2.4-13.4-11.6-23.2-19.2-33.5C252.7,557.2,242.7,551.2,235.6,542z M317.8,686.6C317.8,686.6,317.8,686.6,317.8,686.6
	c0-4.5,0-9,0-13.5c0-3.1-1.1-5.3-4.5-5.2c-7.8,0.2-15.6-0.4-23.2-2.1c-4.3-0.9-5.9,1.4-5.9,5c-0.3,12.2-0.6,24.5,1,36.6
	c0.2,1.4,0.9,2.1,2.2,2.3c8.8,1.9,17.5,4.4,26.6,5.1c3.1,0.2,4.1-0.9,4-4C317.7,702.9,317.8,694.8,317.8,686.6z M315.4,595.4
	c4.1-7.9,5-16.2,6.8-24.3c1.6-7.3,0.1-13.2-3.6-19.6c-4.5-7.7-8.4-16-8.8-25.6c-1.3,0.8-2.2,1.3-3.2,1.9c-5.8,3.7-9.7,9.9-17.4,11.2
	c-2.2,0.3-4.7,2.6-7.4,2.8c-1.7,0.2-1.7,1-1.8,2.2c-1.1,9.4,4.8,17.7,14.1,19.7c2,0.4,3.5,1.3,4.1,3.1c2.4,7.3,8,12.8,11,19.8
	C310.5,589.8,312.5,592.7,315.4,595.4z M366.2,578.7c-0.5-0.2-0.9-0.3-1.4-0.5c-2.4,3.5-4.3,7.6-7.3,10.5
	c-8.4,8.2-12.5,17.3-12.2,29.5c0.3,13.2-2.5,26.4-0.5,39.7c0.4,2.7,1.5,3.4,3.8,3.1c6.9-0.9,13.7-2.1,20.6-2.7
	c3.8-0.3,3.2-1.9,2.2-4.4c-4.7-10.9-6.9-22.4-7.5-34.3c-0.1-3.2-0.9-5-3.6-6.8c-5.4-3.6-6.4-11.2-1.3-14.8
	C366.5,592.8,364.4,585.3,366.2,578.7z M328.4,567.8c-0.1,2.3-1.1,4.5-1.3,6.7c-2.2,22.7-4.1,45.3-2.9,68.1
	c0.3,6.2,0.2,12.6,2.4,18.7c0.7,1.8,1.2,3,3.4,2.6c2.9-0.5,5.9-0.9,8.8-1.4c2.7-0.4,3.1-1.8,2.8-4.6c-1.3-10.6-0.5-21.2-0.4-31.9
	c0.1-8.9,4.3-18.1-2.1-26.5c-0.7-0.9-0.7-2.2-1.1-3.3C334.8,586.8,333,577,328.4,567.8z M193.1,596.8c5.9,4.1,11.7,6.3,18.3,3.5
	c1.7-0.7,3-1.7,4.5,0.7c5.3,8.6,17.9,11.1,26.4,5.6c2.6-1.7,3.4-3.7,2.3-6.7c-1.7-4.5-3.1-9-4.7-13.5c-3.3-9.8-6.7-19.5-10.1-29.5
	C220.3,572.6,214.2,591,193.1,596.8z M378,488c-15.7,2.5-30.8,6.5-46.5,3.3c-1.5-0.3-1.6,0.5-2,1.4c-2.6,7.4,4.3,23.4,11.5,26.5
	c6.6,2.8,13.5,3.9,20.3,1.6c3.1-1,8.3-1.1,8.2-5.6c0-2.5,0.8-3.9,1.9-5.5C375.9,503.1,378,496,378,488z M325.7,752
	c7.8,0.2,14-2.1,20.3-3.9c1.5-0.4,2.2-1.4,2.6-2.7c2.5-8.7,4.9-17.4,7.2-26.1c0.7-2.6-0.8-3.9-3.4-3c-9.1,3.1-18.6,1.7-28,2.3
	c-3,0.2-3.7,0.5-3.6,3.3c0.1,8,0.4,16-0.1,23.9C320.5,750.6,320.1,754.2,325.7,752z M317,735.6C317.1,735.6,317.1,735.6,317,735.6
	c0-4.3-0.2-8.7,0.1-13c0.3-3.8-1.1-4.6-4.8-4.8c-7.5-0.5-15.1-1.1-22.3-3.6c-3.6-1.2-4.5,0.8-4,3.9c1.3,9.2,2.7,18.3,4.1,27.5
	c0.3,1.7,1.1,2.9,3,3.5c6.7,2,13.4,3.7,20.4,3.8c2.9,0.1,3.7-1.1,3.6-3.9C316.9,744.6,317,740.1,317,735.6z M258.9,676
	c0.3,6.3-1.4,12.7,4,18.2c4.7,4.8,9.4,9.2,15.7,11.8c2.9,1.2,2.7-0.2,2.6-2.5c-0.4-12.4-2-24.8,0.5-37.1c0.3-1.5,0-2.7-1.5-3.2
	c-5.3-1.8-9.8-4.8-14.2-8.1c-3.2-2.4-5.4-1.3-5.9,2.6C259.3,663.7,258.6,669.8,258.9,676z M276.5,657.8c0.5-7.4,0.5-14.4,1.3-21.3
	c0.5-4.3,1.9-9.1-2.9-12.5c-1.5-1.1-1.2-3.4-1.2-5.2c0-3.4,1.5-6.1,4-8.2c1.1-0.9,2.2-2.1,0.9-3.3c-1.3-1.2-2,0.6-2.6,1.3
	c-4.1,4.3-9.2,5.6-14.9,5.5c-3,0-6-0.6-9.3-1.9c3.6,11.8,6.9,22.9,8.5,34.4c0.2,1.4-0.5,5.2,2.7,4c2.7-1,3.6,0.5,5,1.7
	C270.5,654.3,273,656.3,276.5,657.8z M275.9,553.8c0-6.4-3.6-11-9.9-13.1c-2.2-0.7-4.3-1.7-6.3-2.8c-4.4-2.2-7.7-5.7-11.3-8.9
	c-2.6-2.3-5.9-3.9-7.9-6.8c-2.2,3.1-0.9,6.9-2.4,10.2c-1.6,3.4-0.3,6.1,1.9,9c6.8,9,16,15.5,23.6,23.7c0.6,0.6,1.1,1.1,2.1,0.9
	C270.1,565.3,275.9,558.6,275.9,553.8z M260.1,698.5c0.7,4.5,1.5,9,2,13.5c1.6,13.4,5,25.6,19,31.5c0.5,0.2,0.9,0.5,1.3,0.7
	c1,0.5,1.8,1.9,3,1.2c1.2-0.7,0.7-2.1,0.5-3.2c-1.3-9.8-2.7-19.6-4-29.4c-0.1-0.9-0.6-1.5-1.5-1.8
	C272.9,708.2,266.9,703.3,260.1,698.5z M378,668.5c0.2-1.6-0.4-4-0.9-6.4c-0.3-1.7-1-2.2-2.7-1.7c-4,1.2-7.9,2.3-12,3.3
	c-2.4,0.6-2.9,1.8-2.1,4c2.9,8.1,4.2,16.2,2.9,24.9c-0.7,4.9-1.1,9.9-1.4,14.9c0,1-1,2.3,1.1,2.6c3.7,0.5,12.6-6.3,12.9-10.1
	C376.6,689.7,377.2,679.6,378,668.5z M322.5,664.5c-0.8-8.7-1.9-17.4-2.3-26.1c-0.4-9,0-18-0.1-26.9c0-1.9,0.9-4.2-2.3-5
	c-2.4-0.6-4.4-2-6.2,1.2c-0.9,1.5-2.6,2.6-4.1,3.6c-2.1,1.4-2.7,2.7-1.6,5.3c5.4,12.7,6.6,26.2,7.1,39.8
	C313.4,666.2,311.3,665.2,322.5,664.5z M349.4,543.4c-2.7,8.3-9.1,13.8-9.2,21.9c-0.2,10.8,1.4,21.4,4.4,31.9
	c4.6-10.4,8.6-20.9,12.6-31.4c0.2-0.6,0.3-1.4,0-1.9C353.9,557.8,352.1,551.1,349.4,543.4z M342.3,776c6.1-0.8,12-2.5,16.6-7.4
	c5.8-6.2,8-14,9.9-22c0.5-2.3-0.8-3-2.9-2c-3,1.4-6,3-9.2,3.9c-5,1.4-7.6,4.4-9.2,9.2c-1.8,5.2-4.4,10-7.5,14.6
	c-0.6,0.9-2.1,1.7-1.5,2.9C339.2,776.7,340.8,775.7,342.3,776z M374.1,709.1c-3.7,1.6-6.9,2.6-9.8,4.3c-1.7,1-3.8,1.7-4.5,4.3
	c-1.9,8.1-4.1,16-6.3,24c-0.3,1.3-0.3,2.3,0.5,3.3c1.1,1.3,2.1,0.2,3.1-0.2c3.7-1.5,7.3-3.2,11-4.7c1.3-0.5,2.5-1,2.7-2.5
	C371.9,728.3,373.9,719.2,374.1,709.1z M346,752.2c-5.6,1.1-10.5,1.6-15.2,3.1c-3.2,1.1-7.9-1.5-9.5,2.1c-1.4,3.1-0.9,7.2-1.1,10.8
	c-0.1,1.8,0,3.7,0,5.5c0,1,0.2,2,1.1,2.6c1.9,1.3,10.6,0.3,12.2-1.7C338.8,768.1,343,760.9,346,752.2z M295.9,775.9
	c-3.5-7-6-13.4-7-20.3c-0.2-1.8-0.4-4.2-2-4.9c-6.4-3.1-12.4-7-19-12.2C272.8,754.9,274.7,771.9,295.9,775.9z M359.2,559.7
	c4.3-3.1,8.2-6.4,11.7-10.1c1.8-1.9,2.6-3.7,0.8-6.1c-3.5-4.6-7.7-8-13.2-9.6c-1.5,2.9,1.2,6.9-1.8,8.5c-3.6,1.8-2.6,3.8-1.9,6.4
	C355.9,552.6,357.2,556.3,359.2,559.7z M461.9,208.1c8.4,1.1,15.5,2.6,22.6,1.6c3.5-0.5,8.2-0.7,8.3-6c0.1-4.1-3.8-6.4-9.8-5.6
	C475.4,199,469.2,203,461.9,208.1z M299.6,576.9c-1.6,1.8-1.8,3.6-1.9,5.4c-0.1,6.2,0.8,12.1,2.5,18.1c1.1,3.9,2.7,3.8,5.1,1.5
	c2.2-2.1,4.1-5.1,8.3-2C307.7,592.7,305,584.3,299.6,576.9z M207,487.5c0,4.3,3.2,9.9,6.4,12.2c2.5,1.8,5.1,0.3,7.3-0.3
	c1.6-0.5,1.8-3.4,1.1-5.4c-1.4-4.1-3.1-8-7.2-10.3c-1.7-0.9-3.3-2.5-5.4-1.1C207.4,483.9,207.2,485.9,207,487.5z M294.1,616.4
	c-0.3-3.1-1.7-5-4.8-5.5c-4.3-0.7-9.9,2.1-11.7,5.8c-1.5,3.1-0.5,5.6,2,7.4c3.1,2.2,6.1,0.6,8.9-0.8
	C291.3,621.7,293.9,620,294.1,616.4z M367.4,611.6c4.6,0,9.2-2.9,9.3-5.9c0.1-3.4-4.2-7.6-7.9-7.6c-5.6,0-9.3,2.7-9.2,6.8
	C359.7,608.8,362.9,611.6,367.4,611.6z M426.1,505.9c0-0.8,0.1-1.7,0-2.5c-0.3-2.3-0.9-4.8-3.5-5.4c-2.5-0.6-3.8,1.6-5.1,3.3
	c-1.5,1.9-1.8,4.3-2.1,6.5c-0.3,2.5-0.8,6.1,1.8,6.9c2.7,0.8,5.7-1,7.6-3.6C425.8,509.5,426.2,507.7,426.1,505.9z M352.8,589.6
	c4.3-6.7,8.6-13.3,12.8-20.1c0.8-1.2,1.1-2.8,1.2-4.3c0.1-2-1.5-2.9-3.2-3.1c-0.8-0.1-2.1-0.5-2.4,0.9
	C359.4,572.2,354.5,580.3,352.8,589.6z M147.5,206.2c4.6,9,12.2,14.8,19.4,21c-2.2-6.3-6.9-11-9.8-16.8
	C155.1,206.5,152.2,205.3,147.5,206.2z M163.3,230.9c-3.9-1.9-6.5-3.6-9.5-4.5c-4.2-1.3-8.4-3.2-13-2.1c-1,0.2-2.6,0.1-2.7,1.7
	c-0.1,1.1,1,1.7,1.9,2.1C147,231.6,154.4,232.4,163.3,230.9z M454.8,197.9c0,0.3-0.1,0.7,0,1c0.4,2.3-1.1,6.2,1.4,6.6
	c2.6,0.4,2.3-3.7,3-5.8c1.3-4,1.8-8.4,2.5-12.6c0.2-1.3-0.3-2.8-1.7-3.3c-2.1-0.8-1.8,1.4-2.5,2.3
	C455.1,189.6,454.9,193.8,454.8,197.9z M223.4,515.8c0.9,10.1,3.2,19.8,6.6,30.6c1.3-4.1,3.8-7,2.7-9.8
	C230.1,529.6,226.6,522.7,223.4,515.8z M250.6,466.8c0-1-0.3-1.9-1.2-2c-1.3-0.2-2.3,0.6-2.9,1.5c-1.4,2.2-0.7,5.6-4.5,6.4
	c-0.9,0.2,0.4,2.8,0.7,2.8c3.7-0.9,5.8,2.4,8.9,2.9c2,0.3,3.2-0.5,3.3-2.7c0-1.8-0.7-3.8-2.6-3.3c-7.5,2-4-1.6-2.3-4.3
	C250.2,467.6,250.4,467.2,250.6,466.8z M275.2,563.6c2.7,0.9,5,1.7,7,3.2c1.8,1.3,3.3,0,4.3-1.1c1.6-1.7-0.6-2.2-1.5-2.7
	c-2.2-1.5-3.9-3.6-5.8-5.7C277.7,559.6,276.5,561.5,275.2,563.6z M384.1,507.8c5.5-0.3,8.1-3.6,7-8.4c-0.3-1.2-0.8-2.3-2.1-2.3
	c-1.2-0.1-1.9,1.1-1.9,2C387.2,502.3,384.7,504.5,384.1,507.8z M352.4,534c-2.5,0.1-2.4,1.8-2.4,3.2c-0.1,1.9,0.9,2.7,2.8,2.5
	c2.2-0.3,1.8-2,1.8-3.4C354.5,534.9,353.9,533.8,352.4,534z M239.6,477.7c-0.2-1.3-1.2-1.7-2.1-1.6c-1.7,0.2-3.2,1.1-3.3,3
	c-0.1,1.1,0.9,1.8,2,1.7C238.2,480.7,238.6,478.9,239.6,477.7z M321.9,498.6c-1.7,3.9-0.5,6.1,1.8,8.5
	C324.5,504,323.8,501.7,321.9,498.6z M366.8,576.4c-0.1-0.3-0.2-0.6-0.3-0.8c-0.1,0.1-0.3,0.2-0.3,0.3c0,0.3,0.2,0.6,0.3,0.8
	C366.5,576.6,366.7,576.5,366.8,576.4z"/>
<path id="XMLID_370_" style="fill:#EC3024;" d="M464.2,197.2c0-5.1,0-9,0-12.9c0-2.2-0.8-3.9-3.1-4.6c-2.4-0.7-4,0.6-5.1,2.3
	c-2,3.1-4,6.2-4,10.1c0,6.3-1,12.6,0.9,18.9c0.8,2.5-0.4,4.6-1.9,6.4c-11.8,15.3-25.4,28.9-40.1,41.4c-13,11.1-26.3,22-39.7,32.7
	c-11.2,9-24.5,14.8-36.7,22.2c-9.1,5.5-16.6,12.4-21.9,21.8c-0.5,0.9-0.6,2.5-2.2,2.3c-1.2-0.1-1.4-1.4-1.7-2.3
	c-5.4-15.6-17.5-25.1-30.6-33.9c-19.2-12.8-40.1-22.7-59.5-35.2c-16.9-10.9-32.4-23.3-45.6-38.6c-2.5-2.9-4.7-5.9-6.3-9.5
	c-1.9-4.1-4.5-7.7-7.2-11.3c-7.4-9.9-10.8-21.6-14.2-33.3c-4.8-16.9-6.1-34.2-3.3-51.5c3.9-24.1,15.2-44.3,33.9-60.4
	c11.5-9.9,24.6-17,39.4-19.7c26.3-4.9,49.7,1.9,69.2,20.5c5.7,5.5,11.1,11.4,15,18.5c0.7,1.3,1.4,3,3.3,2.2c1.7-0.8,1.2-2.6,0.9-4
	c-5-24.3,9.4-38.4,29.5-45.4c13.1-4.6,26.7-6.5,40.6-6.1c21.4,0.7,40.8,6.9,58.1,19.8c13.9,10.4,26.7,21.8,35.9,36.8
	c16.1,26.1,17.6,53.8,9.3,82.6C474.3,177.5,470,187.2,464.2,197.2z M219.3,67.2c-0.4-1.8-1.4-1-2.4-0.5c-0.6,0-1.1,0.1-1.7,0.1
	c-1.5-0.9-2.7-0.8-3.2,1.1c-1.4,0.4-2.9,0.7-4.3,1.3c-16.8,7.7-26,21.6-30.9,38.7c-1.1,4-0.8,8.3,0.2,12.3c0.3,1.2,0.2,3.5,2.3,3.1
	c1.5-0.4,1-2.1,0.8-3.4c-1.2-7.1,0-13.9,3.2-20.3c7.5-15.1,17.6-27.1,35.4-30.1c0.6,0.2,0.8,0,0.5-0.6
	C219.3,68.3,219.3,67.8,219.3,67.2z M188,112.5c0,0.7-0.1,1.3,0,2c0.2,1.2-0.6,3.1,1.3,3.2c2.2,0.2,2-2,2-3.3
	c-0.1-9.7,5.5-16.4,11.9-22.7c1.6-1.6,5.6-3.4,3.7-5.4c-2.5-2.5-4.2,1.7-5.9,3.3C194.2,95.8,188.4,102.7,188,112.5z"/>
<path id="XMLID_368_" style="fill:#526468;" d="M349.9,421.8c8-0.2,16,1,23.9-0.7c2.3-0.5,3.2,0.5,3.4,2.9
	c0.8,9.1,1.8,18.1,2.8,27.2c0.8,6.8,2.4,13.3,4.3,19.9c0.3,1.1,0.7,3,2.4,2.6c2.1-0.5,1.3-2.4,1.1-3.8c-0.1-0.9-1-2,0.1-2.7
	c0.9-0.6,1.9,0.2,2.7,0.6c1,0.6,2.2,0.8,3.1,1.5c1.9,1.6,2.8,3.2-0.1,4.9c-4.7,2.8-9.8,4.1-15,4.9c-19.5,3.2-39.1,5.6-58.8,1.7
	c-1.8-0.4-4.2-0.5-4.8-2.1c-0.8-2.2,1.7-3.3,3.1-4.5c1.9-1.6,3.4-4.1,6.8-2.7c2.2,0.9,2.1-1.4,2.2-2.8c0.9-9.6-0.2-19.2-0.6-28.8
	c-0.2-5.1-0.4-10.3-0.6-15.4c-0.1-3.1,2-2.9,4.1-2.9C336.5,421.8,343.2,421.8,349.9,421.8z"/>
<path id="XMLID_367_" style="fill:#DAB59E;" d="M312,501.4c1.8,6,0.9,11.7-2.1,17.1c0.1-1.5-0.4-2.9,0.3-4.4c0.5-1.1,2-2.3,1-3.5
	c-1.2-1.4-2.8,0-4.2,0.1c-1.3-2.8-0.5-5.9-1-8.8c-1.5-7.6-5.3-13.6-12.9-16.2c-2.8-1-5.1-4.2-7.8-3.3c-2.7,0.9-1.8,5-3.6,7.2
	c-0.6,0.8-1.1,1.7-1.6,2.5c-2.5-0.1-4.2-2-6.3-3.1c-0.8,0-1.9-0.3-2.4,0.1c-8.5,8.3-19.4,14-26.5,23.9c-2.1,3-4,2.3-5.2-1.2
	c-2.4-7.1-2.1-14.4-1.7-21.7c0.1-1.4,0.4-2.3,2-2.1c0.3,0,0.7,0,1,0c3.8-0.1,4.7-3.8,7-5.6c2.1-1.7,5.7,1.2,8.4-1.4
	c3.7-3.5,3.7-8.8-0.6-12c-1.2-0.9-2.1-1.5-1.6-3c0.5-1.7,1.8-2.3,3.5-1.5c2.2,1,3,0,3.5-2c0.2-1.1,0.7-2.2,1.3-3.2
	c1.6-3,5.4-4.1,5.8-8.6c0.3-3.4,6.8-4.1,8.9-1.2c1.9,2.7,3.5,5.6,6,8c1.8,1.7,3.9,5.5-2.7,5.6c4.3,2.7,8.4,4,12,6.4
	c10.3,6.9,15.1,17.1,18.2,28.5c-4.5,0.1-2.1,3.5-2.6,5.5c-0.3,1.2,0.4,2.4,1.9,2.2C312.7,505.3,311.6,503,312,501.4z"/>
<path id="XMLID_366_" style="fill:#FEFEFE;" d="M282,607.8c1.2-12.7-4.5-22.5-12.2-31.6c-1.6-1.9-4.5-4.6-2.2-7.3
	c2.3-2.7,5.9-2.7,9.2-1.1c0.9,0.4,2,0.6,2.6,1.3c2.9,3,5.4,2.4,8.2-0.3c1.7-1.7,4.1-2.7,6.4-1.5c2.4,1.2,2.8,3.6,2,6
	c-5.2,16.5,2.1,31.1,7.3,45.8c5,14,5.9,28.4,6.6,43c0.1,2.5-0.7,3.2-3,2.9c-8-0.9-16.1-1.6-23.9-4c-2.3-0.7-3.4-1.8-3.4-4.5
	c0.1-8.2,0.9-16.2,1.8-24.3c0.3-2.7,1.1-3.9,4-4.2c3.9-0.3,7.1-2.5,9.6-5.6c4.5-5.5,2.1-13.1-4.7-14.8
	C287.8,606.7,285.2,607.1,282,607.8z"/>
<path id="XMLID_365_" style="fill:#8B5428;" d="M321,691.4c0-6.7,0.1-13.3,0-20c0-2.5,0.8-3.6,3.4-3.5c8.8,0.5,17.6-0.6,26.2-2.2
	c4.8-0.9,6.1,1.7,7.2,4.8c2.8,8.2,2.5,16.7,1.9,25.1c-0.2,2.1-0.5,4.3-0.7,6.4c-0.7,8.8-2.3,10.7-10.8,11.7
	c-7.7,0.9-15.5,1.3-23.3,1.2c-3.3,0-3.9-1.4-3.8-4.2C321,704.3,320.9,697.9,321,691.4C321,691.4,321,691.4,321,691.4z"/>
<path id="XMLID_361_" style="fill:#DAB59E;" d="M276.6,539.1c-7.4,0-13.9-2.7-19.8-7c-1.3-0.9-2.8-2.3-2.5-3.5
	c0.9-3.2-1.8-3.2-3.2-3.8c-4.8-1.9-6.3-5.1-3.6-9.3c3.3-5.1,8-8.8,12.6-12.6c0.4-0.4,1.2-0.7,1.7-0.6c10.1,2,17.2-1.3,22.5-10.4
	c2.6-4.5,9.2-5.2,11.5-0.6c2.8,5.5,8.1,10.2,7,17.2c-0.7,4.4-1,8.8-5,12.2c-2.4,2-5.2,4.8-2.6,8.8c1.6,2.4-0.7,3.4-2.1,4.6
	C288.4,538.4,282.5,538.9,276.6,539.1z M251.8,516.5c0.1,4,2.4,5.6,5.7,3.4c1.7-1.1,3.1-1.8,4.7-0.3c0.9,0.8,1.7,1.8,2.9,0.5
	c1.1-1.2,2.1-2.5,1.9-4.3c-0.2-1.7-1.6-1.9-2.9-2.1c-2.3-0.3-4.2,0.6-6,1.8c-1.5,1.1-3,2.7-3.3-0.9c0-0.8-1.2-1.1-2-0.7
	C251.6,514.5,251.7,515.5,251.8,516.5z M285.6,512c-1.7-0.2-3.4,0-4.7,1.7c-0.6,0.8-1.2,1.5-0.1,2.4c2.2,1.9,12.4,0.6,13.9-1.9
	c0.4-0.7,1.5-1.6,0.3-2.5c-0.5-0.3-1.6-0.6-1.7-0.5C291.2,514.7,288.3,511.6,285.6,512z"/>
<path id="XMLID_359_" style="fill:#FEFEFE;" d="M235.6,542c7.1,9.2,17.1,15.2,23.6,24c7.6,10.3,16.8,20,19.2,33.5
	c0.3,1.8,1.1,3.5-1.9,3.6c-0.8,0-1.5,1.6-2.3,2.4c-8.1,9.3-22.2,6.9-26.2-4.6c-5.3-15.2-10.2-30.6-15.5-45.8
	C230.7,549.9,235,546.5,235.6,542z"/>
<path id="XMLID_358_" style="fill:#8B5428;" d="M317.8,686.6c0,8.1-0.1,16.2,0.1,24.3c0.1,3-1,4.2-4,4c-9.1-0.7-17.7-3.2-26.6-5.1
	c-1.3-0.3-2-1-2.2-2.3c-1.6-12.2-1.3-24.4-1-36.6c0.1-3.6,1.7-5.9,5.9-5c7.6,1.7,15.4,2.3,23.2,2.1c3.4-0.1,4.6,2.1,4.5,5.2
	C317.8,677.7,317.8,682.2,317.8,686.6C317.8,686.6,317.8,686.6,317.8,686.6z"/>
<path id="XMLID_357_" style="fill:#FEFEFE;" d="M315.4,595.4c-2.8-2.8-4.8-5.6-6.2-8.8c-3-7-8.5-12.5-11-19.8
	c-0.6-1.8-2.1-2.7-4.1-3.1c-9.4-1.9-15.3-10.3-14.1-19.7c0.2-1.2,0.1-2.1,1.8-2.2c2.7-0.3,5.2-2.5,7.4-2.8
	c7.7-1.2,11.6-7.5,17.4-11.2c0.9-0.6,1.9-1.1,3.2-1.9c0.4,9.6,4.2,17.9,8.8,25.6c3.7,6.3,5.2,12.3,3.6,19.6
	C320.4,579.3,319.5,587.5,315.4,595.4z"/>
<path id="XMLID_356_" style="fill:#526468;" d="M366.2,578.7c-1.8,6.6,0.3,14.1-7.2,19.3c-5.1,3.6-4.1,11.2,1.3,14.8
	c2.7,1.8,3.5,3.7,3.6,6.8c0.5,11.8,2.8,23.3,7.5,34.3c1.1,2.5,1.6,4-2.2,4.4c-6.9,0.6-13.8,1.8-20.6,2.7c-2.4,0.3-3.4-0.4-3.8-3.1
	c-2-13.3,0.8-26.5,0.5-39.7c-0.3-12.1,3.7-21.3,12.2-29.5c3-2.9,4.9-7,7.3-10.5C365.3,578.4,365.8,578.5,366.2,578.7z"/>
<path id="XMLID_355_" style="fill:#526468;" d="M328.4,567.8c4.6,9.2,6.3,19,9.6,28.4c0.4,1.1,0.4,2.4,1.1,3.3
	c6.3,8.4,2.2,17.6,2.1,26.5c-0.1,10.6-0.9,21.3,0.4,31.9c0.4,2.8-0.1,4.1-2.8,4.6c-2.9,0.5-5.9,0.9-8.8,1.4
	c-2.1,0.4-2.7-0.8-3.4-2.6c-2.2-6.1-2.1-12.5-2.4-18.7c-1.2-22.8,0.8-45.5,2.9-68.1C327.3,572.3,328.3,570.1,328.4,567.8z"/>
<path id="XMLID_354_" style="fill:#FEFEFE;" d="M193.1,596.8c21.1-5.8,27.2-24.2,36.7-40c3.4,10,6.8,19.8,10.1,29.5
	c1.5,4.5,3,9.1,4.7,13.5c1.2,3,0.3,5-2.3,6.7c-8.5,5.6-21.1,3.1-26.4-5.6c-1.5-2.4-2.8-1.4-4.5-0.7
	C204.8,603,199.1,600.9,193.1,596.8z"/>
<path id="XMLID_350_" style="fill:#DAB59E;" d="M378,488c0.1,8.1-2.1,15.1-6.4,21.6c-1.1,1.6-2,3-1.9,5.5c0,4.5-5.1,4.6-8.2,5.6
	c-6.8,2.3-13.7,1.2-20.3-1.6c-7.2-3.1-14.2-19.1-11.5-26.5c0.3-1,0.5-1.7,2-1.4C347.1,494.5,362.3,490.4,378,488z M362.1,497
	c-1,0.2-2.1,0.2-3.2,0.6c-1.1,0.4-3,0.3-2.6,2.2c0.3,1.5,1.8,1.1,2.9,1.1c1.8,0,3.6,0,5.4,0c1.2-0.1,2.9,0.8,3.2-1.2
	c0.3-2-1.6-1.7-2.7-2.2C364.3,497.2,363.3,497.2,362.1,497z M336.8,497C336.8,497,336.8,497,336.8,497c-1.2,0-2.3-0.1-3.4,0.1
	c-1.3,0.3-2.7,0.7-2.3,2.5c0.4,1.7,1.8,1.2,2.8,1c1.6-0.4,3.2-0.7,4.9-0.2c1.7,0.5,3.7,0.9,3.9-1.4c0.2-1.8-2-1.8-3.4-2.1
	C338.5,496.9,337.7,497,336.8,497z"/>
<path id="XMLID_349_" style="fill:#8B5428;" d="M325.7,752c-5.6,2.2-5.2-1.4-4.9-6.2c0.5-7.9,0.2-15.9,0.1-23.9c0-2.7,0.6-3,3.6-3.3
	c9.3-0.6,18.8,0.7,28-2.3c2.6-0.9,4.1,0.3,3.4,3c-2.3,8.7-4.7,17.4-7.2,26.1c-0.4,1.3-1.1,2.3-2.6,2.7
	C339.7,749.8,333.5,752.1,325.7,752z"/>
<path id="XMLID_348_" style="fill:#8B5428;" d="M317,735.6c0,4.5-0.1,9,0,13.5c0.1,2.7-0.6,3.9-3.6,3.9c-7-0.1-13.7-1.8-20.4-3.8
	c-1.9-0.6-2.8-1.8-3-3.5c-1.4-9.2-2.8-18.3-4.1-27.5c-0.4-3.1,0.5-5.1,4-3.9c7.3,2.5,14.8,3.1,22.3,3.6c3.7,0.2,5,1.1,4.8,4.8
	C316.8,726.9,317.1,731.3,317,735.6C317.1,735.6,317.1,735.6,317,735.6z"/>
<path id="XMLID_347_" style="fill:#8B5428;" d="M258.9,676c-0.4-6.2,0.3-12.3,1.1-18.4c0.5-3.9,2.7-5,5.9-2.6
	c4.4,3.3,8.9,6.4,14.2,8.1c1.5,0.5,1.8,1.8,1.5,3.2c-2.5,12.3-1,24.7-0.5,37.1c0.1,2.3,0.3,3.7-2.6,2.5c-6.3-2.6-11-7-15.7-11.8
	C257.5,688.7,259.3,682.3,258.9,676z"/>
<path id="XMLID_345_" style="fill:#FEFEFE;" d="M275.9,553.8c0,4.8-5.9,11.5-10.4,12.1c-1,0.1-1.5-0.3-2.1-0.9
	c-7.6-8.1-16.8-14.7-23.6-23.7c-2.1-2.8-3.5-5.6-1.9-9c1.6-3.2,0.3-7.1,2.4-10.2c2.1,2.9,5.3,4.6,7.9,6.8c3.7,3.1,7,6.7,11.3,8.9
	c2.1,1,4.1,2.1,6.3,2.8C272.4,542.8,276,547.4,275.9,553.8z"/>
<path id="XMLID_344_" style="fill:#8B5428;" d="M260.1,698.5c6.9,4.9,12.9,9.8,20.4,12.5c0.9,0.3,1.4,0.9,1.5,1.8
	c1.4,9.8,2.7,19.6,4,29.4c0.1,1.1,0.7,2.5-0.5,3.2c-1.2,0.7-2-0.7-3-1.2c-0.5-0.2-0.9-0.5-1.3-0.7c-14-5.9-17.4-18.2-19-31.5
	C261.5,707.4,260.7,702.9,260.1,698.5z"/>
<path id="XMLID_343_" style="fill:#8B5428;" d="M378,668.5c-0.7,11.1-1.3,21.2-2.1,31.3c-0.3,3.8-9.3,10.6-12.9,10.1
	c-2-0.3-1.1-1.6-1.1-2.6c0.2-5,0.7-10,1.4-14.9c1.3-8.7,0-16.8-2.9-24.9c-0.8-2.2-0.4-3.4,2.1-4c4-0.9,8-2.1,12-3.3
	c1.7-0.5,2.4,0,2.7,1.7C377.6,664.5,378.1,667,378,668.5z"/>
<path id="XMLID_341_" style="fill:#EC3024;" d="M349.4,543.4c2.7,7.7,4.6,14.4,7.7,20.5c0.3,0.5,0.2,1.4,0,1.9
	c-4,10.5-8,21-12.6,31.4c-3-10.6-4.6-21.2-4.4-31.9C340.3,557.2,346.7,551.7,349.4,543.4z"/>
<path id="XMLID_340_" style="fill:#8B5428;" d="M342.3,776c-1.5-0.3-3.2,0.7-3.9-0.8c-0.5-1.2,0.9-2,1.5-2.9c3-4.6,5.7-9.5,7.5-14.6
	c1.6-4.8,4.2-7.9,9.2-9.2c3.2-0.9,6.1-2.5,9.2-3.9c2.2-1,3.5-0.3,2.9,2c-1.8,7.9-4,15.7-9.9,22C354.3,773.5,348.4,775.3,342.3,776z"
	/>
<path id="XMLID_339_" style="fill:#8B5428;" d="M374.1,709.1c-0.2,10.1-2.2,19.2-3.3,28.4c-0.2,1.6-1.3,2-2.7,2.5
	c-3.7,1.5-7.3,3.1-11,4.7c-1,0.4-2,1.5-3.1,0.2c-0.8-0.9-0.8-2-0.5-3.3c2.2-8,4.4-16,6.3-24c0.6-2.6,2.8-3.3,4.5-4.3
	C367.2,711.7,370.4,710.7,374.1,709.1z"/>
<path id="XMLID_338_" style="fill:#8B5428;" d="M302,776.2c-5.9-2.9-5.9-9.1-7.9-14.2c-0.3-0.7-0.2-1.6-0.4-2.4
	c-1.7-7-1.7-7.1,5-5.3c4.7,1.2,9.4,1.9,14.2,1.7c3.3-0.2,4.4,1.1,4.2,4.4c-0.3,5.3-0.2,10.6-0.3,15.9
	C311.8,776.2,306.9,776.2,302,776.2z"/>
<path id="XMLID_337_" style="fill:#8B5428;" d="M346,752.2c-3,8.6-7.1,15.9-12.5,22.6c-1.6,1.9-10.3,3-12.2,1.7
	c-0.9-0.6-1.1-1.6-1.1-2.6c0-1.8-0.1-3.7,0-5.5c0.2-3.6-0.3-7.7,1.1-10.8c1.7-3.7,6.3-1.1,9.5-2.1
	C335.4,753.8,340.4,753.3,346,752.2z"/>
<path id="XMLID_336_" style="fill:#8B5428;" d="M295.9,775.9c-21.2-4-23.1-21-28-37.5c6.6,5.2,12.6,9.1,19,12.2
	c1.6,0.8,1.8,3.2,2,4.9C289.8,762.5,292.4,768.9,295.9,775.9z"/>
<path id="XMLID_335_" style="fill:#DAB59E;" d="M359.2,559.7c-2-3.4-3.3-7.1-4.4-10.9c-0.7-2.6-1.7-4.6,1.9-6.4
	c3.1-1.5,0.4-5.6,1.8-8.5c5.5,1.6,9.8,5.1,13.2,9.6c1.8,2.4,1,4.2-0.8,6.1C367.4,553.4,363.4,556.6,359.2,559.7z"/>
<path id="XMLID_334_" style="fill:#FEFEFE;" d="M461.9,208.1c7.3-5.2,13.5-9.1,21.1-10.1c6-0.8,9.9,1.5,9.8,5.6
	c-0.1,5.3-4.8,5.5-8.3,6C477.4,210.8,470.4,209.2,461.9,208.1z"/>
<path id="XMLID_333_" style="fill:#FEFEFE;" d="M299.6,576.9c5.4,7.4,8,15.8,14,23c-4.2-3.1-6.1-0.1-8.3,2c-2.5,2.3-4.1,2.4-5.1-1.5
	c-1.6-6-2.6-11.9-2.5-18.1C297.8,580.5,298,578.7,299.6,576.9z"/>
<path id="XMLID_332_" style="fill:#DAB59E;" d="M207,487.5c0.2-1.6,0.4-3.6,2.2-4.9c2.1-1.4,3.7,0.2,5.4,1.1
	c4.1,2.3,5.7,6.2,7.2,10.3c0.7,2,0.5,4.9-1.1,5.4c-2.2,0.6-4.7,2.1-7.3,0.3C210.2,497.5,207,491.8,207,487.5z"/>
<path id="XMLID_331_" style="fill:#DAB59E;" d="M294.1,616.4c-0.2,3.6-2.8,5.4-5.6,6.8c-2.8,1.4-5.8,3-8.9,0.8
	c-2.5-1.8-3.4-4.3-2-7.4c1.7-3.6,7.4-6.5,11.7-5.8C292.4,611.3,293.8,613.3,294.1,616.4z"/>
<path id="XMLID_330_" style="fill:#DAB59E;" d="M367.4,611.6c-4.4,0-7.7-2.8-7.8-6.7c-0.1-4.1,3.5-6.8,9.2-6.8c3.7,0,8,4.2,7.9,7.6
	C376.6,608.7,372,611.6,367.4,611.6z"/>
<path id="XMLID_329_" style="fill:#DAB59E;" d="M426.1,505.9c0.1,1.9-0.2,3.6-1.3,5.2c-1.8,2.7-4.9,4.5-7.6,3.6
	c-2.6-0.8-2.1-4.4-1.8-6.9c0.2-2.2,0.6-4.6,2.1-6.5c1.3-1.7,2.6-3.8,5.1-3.3c2.6,0.6,3.2,3,3.5,5.4
	C426.2,504.2,426.1,505,426.1,505.9z"/>
<path id="XMLID_328_" style="fill:#DAB59E;" d="M352.8,589.6c1.7-9.3,6.6-17.4,8.4-26.5c0.3-1.5,1.5-1.1,2.4-0.9
	c1.8,0.2,3.3,1.1,3.2,3.1c-0.1,1.4-0.5,3-1.2,4.3C361.4,576.3,357.1,582.9,352.8,589.6z"/>
<path id="XMLID_327_" style="fill:#FEFEFE;" d="M147.5,206.2c4.7-0.9,7.6,0.3,9.6,4.1c2.9,5.8,7.6,10.6,9.8,16.8
	C159.7,221,152.1,215.2,147.5,206.2z"/>
<path id="XMLID_326_" style="fill:#DAB59E;" d="M342,550.2c-0.6,1.5-1.2,2.9-2,5.1c-2-4-3.6-7.1-5.1-10.3c-2.6-5.4-1.8-7.1,3.9-8.7
	c0.9-0.3,1.9-0.2,2.9-0.3C341.8,540.7,341.9,545.5,342,550.2z"/>
<path id="XMLID_325_" style="fill:#FEFEFE;" d="M163.3,230.9c-8.9,1.5-16.3,0.6-23.3-2.9c-0.9-0.4-1.9-1-1.9-2.1
	c0.1-1.6,1.7-1.5,2.7-1.7c4.6-1.1,8.8,0.8,13,2.1C156.8,227.4,159.4,229.1,163.3,230.9z"/>
<path id="XMLID_324_" style="fill:#EC3024;" d="M454.8,197.9c0.1-4.1,0.2-8.3,2.7-11.9c0.6-0.9,0.4-3.1,2.5-2.3
	c1.4,0.5,1.9,2,1.7,3.3c-0.7,4.2-1.2,8.6-2.5,12.6c-0.7,2.1-0.3,6.2-3,5.8c-2.5-0.4-1-4.3-1.4-6.6
	C454.8,198.6,454.8,198.3,454.8,197.9z"/>
<path id="XMLID_323_" style="fill:#FEFEFE;" d="M223.4,515.8c3.2,6.9,6.6,13.7,9.3,20.8c1.1,2.8-1.4,5.7-2.7,9.8
	C226.6,535.7,224.3,525.9,223.4,515.8z"/>
<path id="XMLID_322_" style="fill:#EC3024;" d="M250.6,466.8c-0.2,0.4-0.3,0.9-0.6,1.3c-1.6,2.7-5.1,6.3,2.3,4.3
	c1.9-0.5,2.6,1.5,2.6,3.3c0,2.2-1.3,3-3.3,2.7c-3.1-0.5-5.3-3.8-8.9-2.9c-0.3,0.1-1.6-2.6-0.7-2.8c3.8-0.8,3.1-4.2,4.5-6.4
	c0.6-0.9,1.7-1.8,2.9-1.5C250.3,464.9,250.6,465.8,250.6,466.8z"/>
<path id="XMLID_321_" style="fill:#DAB59E;" d="M379.6,501.2c1.1-3,1.7-6.1,1.6-9.3c1.2-1.2,1.3-2.6,0.4-4.1c-0.3-1-0.5-2-0.8-3
	c0.2-0.6,0.4-1.3,0.7-1.9c3.3-1.5,4.9-1,4.2,3.1c-1.1,6.6-1.4,13.4-4.7,19.5C379.6,504.3,380,502.7,379.6,501.2z"/>
<path id="XMLID_320_" style="fill:#DAB59E;" d="M334.1,571.5c-1-3.1-2.1-6.2-2.8-9.4c-0.3-1.6-1.1-3.8,1.1-4.8
	c1.8-0.8,3.8-0.2,5.2,0.9c1.6,1.2,0,2.7-0.4,4.1c-0.1,0.5-0.2,1-0.3,1.4C334.3,565.7,337.6,569.8,334.1,571.5z"/>
<path id="XMLID_319_" style="fill:#DAB59E;" d="M364,486.8c-9,1.3-18,2.6-27,1.8c2.3-1.4,7.3-2.4,12.9-2.5c4-0.1,8,0.2,11.9-0.8
	C362.4,486,363.8,485.6,364,486.8z"/>
<path id="XMLID_318_" style="fill:#DAB59E;" d="M275.2,563.6c1.3-2.1,2.5-4,4-6.3c1.9,2.1,3.6,4.2,5.8,5.7c0.8,0.6,3.1,1,1.5,2.7
	c-1,1.1-2.5,2.4-4.3,1.1C280.2,565.3,277.9,564.5,275.2,563.6z"/>
<path id="XMLID_317_" style="fill:#526468;" d="M342,550.2c-0.1-4.7-0.2-9.5-0.3-14.2c1.6-0.4,3.1-2.4,4.5-1.5
	c1.7,1.2,1.1,3.8,0.7,5.5C345.9,543.7,344.6,547.3,342,550.2z"/>
<path id="XMLID_316_" style="fill:#DAB59E;" d="M309.1,520c-4.1,6.1-4.7,6.5-9.6,6.6c2.7-4,5.3-7.8,6.5-12.4
	C306.5,516.4,304.4,520,309.1,520z"/>
<path id="XMLID_315_" style="fill:#DAB59E;" d="M384.1,507.8c0.6-3.3,3.1-5.6,3-8.8c0-0.9,0.7-2,1.9-2c1.3,0.1,1.8,1.1,2.1,2.3
	C392.2,504.2,389.7,507.5,384.1,507.8z"/>
<path id="XMLID_314_" style="fill:#8B5428;" d="M309.1,520c-4.6,0-2.6-3.6-3.1-5.8c0-0.5,0.1-1,0.1-1.5c0.3,0.2,0.6,0.2,0.9,0.2
	c0,0.1,0.1,0.3,0.1,0.4c0,0.1,0.2,0,0.3,0.1c-0.2-0.1-0.3-0.3-0.5-0.4c0-0.4-0.1-0.7-0.1-1.1c0.1-0.4,0.2-0.8,0.2-1.2
	c1.4-0.2,3-1.6,4.2-0.1c1,1.2-0.5,2.4-1,3.5c-0.6,1.5-0.2,2.9-0.3,4.4C310.1,519.3,309.8,519.8,309.1,520z"/>
<path id="XMLID_313_" style="fill:#8B5428;" d="M273.9,489.1c2,1.1,3.7,3,6.3,3.1c-1.1,3.3-3.8,4.7-7,5.7
	C271.8,494.9,274.9,492.1,273.9,489.1z"/>
<path id="XMLID_312_" style="fill:#526468;" d="M364,486.8c-0.3-1.2-1.6-0.8-2.2-1.5c6.6-0.4,13-2.5,19.6-2.4
	c-0.2,0.6-0.4,1.3-0.7,1.9C375.1,484.6,369.7,486.6,364,486.8z"/>
<path id="XMLID_311_" style="fill:#EC3024;" d="M352.4,534c1.5-0.2,2.1,0.9,2.2,2.4c0,1.4,0.4,3.2-1.8,3.4c-1.9,0.2-2.9-0.6-2.8-2.5
	C350,535.8,349.9,534.1,352.4,534z"/>
<path id="XMLID_310_" style="fill:#8B5428;" d="M312,501.4c-0.4,1.6,0.6,3.9-2,4.3c-1.5,0.2-2.2-1-1.9-2.2c0.5-2-1.9-5.4,2.6-5.5
	C311.1,499.2,311.6,500.3,312,501.4z"/>
<path id="XMLID_309_" style="fill:#526468;" d="M379.6,501.2c0.4,1.4,0,3.1,1.3,4.3c-0.6,3-2.6,4.6-6.2,6
	C376.6,507.5,378.1,504.3,379.6,501.2z"/>
<path id="XMLID_308_" style="fill:#526468;" d="M334.1,571.5c3.5-1.7,0.2-5.8,2.8-7.9c0,4.5,0,9.1,0,14.2
	C334.7,575.9,334.6,573.6,334.1,571.5z"/>
<path id="XMLID_307_" style="fill:#8B5428;" d="M239.6,477.7c-1,1.2-1.5,3-3.4,3.1c-1.1,0.1-2.1-0.6-2-1.7c0.1-1.9,1.6-2.8,3.3-3
	C238.4,476,239.4,476.4,239.6,477.7z"/>
<path id="XMLID_306_" style="fill:#DAB59E;" d="M321.9,498.6c1.9,3.1,2.6,5.4,1.8,8.5C321.4,504.7,320.2,502.5,321.9,498.6z"/>
<path id="XMLID_305_" style="fill:#DAB59E;" d="M309.8,604.4c-1.5,1.5-3,3-4.7,4.3c-0.5,0.4-1.4,1.2-2,0.1c-0.4-0.7-0.3-1.5,0.7-2
	c1.7-0.9,3.3-2,5-3.1C309.1,603.9,309.4,604.2,309.8,604.4z"/>
<path id="XMLID_304_" style="fill:#526468;" d="M302,776.2c4.9,0,9.9,0,14.8,0C311.8,777.2,306.9,777.2,302,776.2z"/>
<path id="XMLID_303_" style="fill:#526468;" d="M381.6,487.8c0.9,1.4,0.9,2.8-0.4,4.1C380.9,490.5,380.8,489.1,381.6,487.8z"/>
<path id="XMLID_302_" style="fill:#DAB59E;" d="M308.7,603.7c0.3-0.9,1-1.2,1.7-0.6c0.5,0.5-0.3,1-0.7,1.3
	C309.4,604.2,309.1,603.9,308.7,603.7z"/>
<path id="XMLID_301_" style="fill:#526468;" d="M366.8,576.4c-0.1,0.1-0.2,0.2-0.4,0.3c-0.1-0.3-0.2-0.5-0.3-0.8
	c0-0.1,0.2-0.2,0.3-0.3C366.6,575.8,366.7,576.1,366.8,576.4z"/>
<path id="XMLID_300_" style="fill:#DAB59E;" d="M307,512.9c-0.3,0-0.6,0-0.9-0.2c0.3-0.3,0.5-0.6,0.8-0.9
	C306.9,512.2,306.9,512.6,307,512.9L307,512.9z"/>
<path id="XMLID_299_" style="fill:#201E1D;" d="M215.2,66.7c0.6,0,1.1-0.1,1.7-0.1c0.8,0.2,1.6,0.4,2.4,0.5c0,0.6,0,1.1,0,1.7
	c-0.3,0.1-0.4,0.3-0.5,0.6c-17.8,3-27.9,15-35.4,30.1c-3.2,6.5-4.3,13.2-3.2,20.3c0.2,1.4,0.8,3.1-0.8,3.4c-2.1,0.5-2-1.9-2.3-3.1
	c-1.1-4.1-1.3-8.4-0.2-12.3c4.8-17.2,14.1-31,30.9-38.7c1.3-0.6,2.8-0.9,4.2-1.3C213.3,68.1,214.5,67.9,215.2,66.7z"/>
<path id="XMLID_298_" style="fill:#201E1D;" d="M188,112.5c0.4-9.8,6.2-16.7,13-23c1.7-1.5,3.5-5.8,5.9-3.3c2,2-2.1,3.8-3.7,5.4
	c-6.4,6.4-12,13-11.9,22.7c0,1.3,0.2,3.4-2,3.3c-1.9-0.1-1.1-2-1.3-3.2C187.9,113.9,188,113.2,188,112.5z"/>
<path id="XMLID_297_" style="fill:#8B5428;" d="M215.2,66.7c-0.8,1.1-1.9,1.4-3.2,1.1C212.5,65.9,213.7,65.8,215.2,66.7z"/>
<path id="XMLID_296_" style="fill:#8B5428;" d="M219.3,67.2c-0.8-0.2-1.6-0.4-2.4-0.5C217.9,66.2,218.9,65.4,219.3,67.2z"/>
<path id="XMLID_295_" style="fill:#8B5428;" d="M218.9,69.4c0-0.3,0.2-0.5,0.5-0.6C219.6,69.5,219.4,69.6,218.9,69.4z"/>
<path id="XMLID_294_" style="fill:#201E1D;" d="M251.8,516.5c-0.1-1-0.1-2,0.9-2.6c0.9-0.4,2,0,2,0.7c0.2,3.7,1.8,2,3.3,0.9
	c1.8-1.3,3.7-2.1,6-1.8c1.3,0.2,2.7,0.4,2.9,2.1c0.2,1.7-0.8,3.1-1.9,4.3c-1.2,1.3-2,0.2-2.9-0.5c-1.7-1.5-3-0.9-4.7,0.3
	C254.1,522.1,251.8,520.6,251.8,516.5z"/>
<path id="XMLID_293_" style="fill:#201E1D;" d="M285.6,512c2.7-0.3,5.6,2.8,7.8-0.8c0.1-0.1,1.2,0.2,1.7,0.5
	c1.2,0.9,0.2,1.8-0.3,2.5c-1.6,2.5-11.7,3.7-13.9,1.9c-1.1-0.9-0.5-1.6,0.1-2.4C282.2,511.9,284,511.8,285.6,512z"/>
<path id="XMLID_292_" style="fill:#201E1D;" d="M362.1,497c1.2,0.2,2.2,0.2,3.1,0.5c1.1,0.4,3,0.2,2.7,2.2c-0.3,2-2,1.1-3.2,1.2
	c-1.8,0.1-3.6,0-5.4,0c-1.1,0-2.6,0.4-2.9-1.1c-0.4-1.9,1.5-1.8,2.6-2.2C359.9,497.2,361.1,497.2,362.1,497z"/>
<path id="XMLID_291_" style="fill:#201E1D;" d="M336.8,497c0.8,0,1.7-0.1,2.5,0c1.4,0.3,3.5,0.3,3.4,2.1c-0.2,2.3-2.2,1.8-3.9,1.4
	c-1.6-0.4-3.2-0.2-4.9,0.2c-1,0.3-2.4,0.7-2.8-1c-0.4-1.8,1-2.3,2.3-2.5C334.5,496.9,335.7,497,336.8,497
	C336.8,497,336.8,497,336.8,497z"/>
<path id="XMLID_290_" style="fill:#DAB59E;" d="M306.9,513c0.2,0.1,0.3,0.3,0.5,0.4c-0.1,0-0.2,0-0.3-0.1
	C307.1,513.2,307,513,306.9,513C307,512.9,306.9,513,306.9,513z"/>
</svg>
